<svg xmlns="http://www.w3.org/2000/svg" width="13.781" height="15.199" viewBox="0 0 13.781 15.199">
  <g id="bell_1_" data-name="bell (1)" transform="translate(-2.5 -1.5)">
    <path id="Path_7" data-name="Path 7" d="M13.651,6.26a4.26,4.26,0,1,0-8.521,0c0,4.97-2.13,6.391-2.13,6.391H15.781s-2.13-1.42-2.13-6.391" transform="translate(0 0)" fill="none" stroke="#0049b0" stroke-linecap="round" stroke-linejoin="round" stroke-width="1"/>
    <path id="Path_8" data-name="Path 8" d="M12.727,21a1.42,1.42,0,0,1-2.457,0" transform="translate(-2.108 -5.509)" fill="none" stroke="#0049b0" stroke-linecap="round" stroke-linejoin="round" stroke-width="1"/>
  </g>
</svg>
