<svg xmlns="http://www.w3.org/2000/svg" width="9.359" height="16.719" viewBox="0 0 9.359 16.719">
  <path id="chevron-left" d="M9,19.891l6.945-6.945L9,6" transform="translate(-7.586 -4.586)" fill="none" stroke="#1c3e60" stroke-linecap="round" stroke-linejoin="round" stroke-width="2"/>
</svg>
