<svg xmlns="http://www.w3.org/2000/svg" width="58.136" height="26.742" viewBox="0 0 58.136 26.742">
  <g id="Group_958" data-name="Group 958" transform="translate(-862 -155)">
    <g id="Rectangle_370" data-name="Rectangle 370" transform="translate(862 160.349)" fill="#a2a2a2" stroke="#a2a2a2" stroke-width="1">
      <rect width="52.787" height="16.045" rx="8" stroke="none"/>
      <rect x="0.5" y="0.5" width="51.787" height="15.045" rx="7.5" fill="none"/>
    </g>
    <g id="Group_935" data-name="Group 935" transform="translate(893.394 155)">
      <g id="Path_1034" data-name="Path 1034" transform="translate(0 0)" fill="#27ae60">
        <path d="M 13.37104034423828 25.74208068847656 C 10.06661987304688 25.74208068847656 6.959980487823486 24.45527076721191 4.623390197753906 22.11869049072266 C 2.286810398101807 19.78210067749023 1.000000357627869 16.67546081542969 1.000000357627869 13.37104034423828 C 1.000000357627869 10.06661987304688 2.286810398101807 6.959980487823486 4.623390197753906 4.623390197753906 C 6.959980487823486 2.286810398101807 10.06661987304688 1.000000357627869 13.37104034423828 1.000000357627869 C 16.67546081542969 1.000000357627869 19.78210067749023 2.286810398101807 22.11869049072266 4.623390197753906 C 24.45527076721191 6.959980487823486 25.74208068847656 10.06661987304688 25.74208068847656 13.37104034423828 C 25.74208068847656 16.67546081542969 24.45527076721191 19.78210067749023 22.11869049072266 22.11869049072266 C 19.78210067749023 24.45527076721191 16.67546081542969 25.74208068847656 13.37104034423828 25.74208068847656 Z" stroke="none"/>
        <path d="M 13.37104034423828 2 C 10.33373069763184 2 7.47821044921875 3.182790756225586 5.330499649047852 5.330499649047852 C 3.182790756225586 7.47821044921875 2 10.33373069763184 2 13.37104034423828 C 2 16.40834999084473 3.182790756225586 19.26387023925781 5.330499649047852 21.41158103942871 C 7.47821044921875 23.55928993225098 10.33373069763184 24.74208068847656 13.37104034423828 24.74208068847656 C 16.40834999084473 24.74208068847656 19.26387023925781 23.55928993225098 21.41158103942871 21.41158103942871 C 23.55928993225098 19.26387023925781 24.74208068847656 16.40834999084473 24.74208068847656 13.37104034423828 C 24.74208068847656 10.33373069763184 23.55928993225098 7.47821044921875 21.41158103942871 5.330499649047852 C 19.26387023925781 3.182790756225586 16.40834999084473 2 13.37104034423828 2 M 13.37104034423828 0 C 20.75566101074219 0 26.74208068847656 5.986419677734375 26.74208068847656 13.37104034423828 C 26.74208068847656 20.75566101074219 20.75566101074219 26.74208068847656 13.37104034423828 26.74208068847656 C 5.986419677734375 26.74208068847656 0 20.75566101074219 0 13.37104034423828 C 0 5.986419677734375 5.986419677734375 0 13.37104034423828 0 Z" stroke="none" fill="#747474"/>
      </g>
      <g id="Ellipse_393" data-name="Ellipse 393" transform="translate(1.783 1.783)" fill="#27ae60" stroke="#fff" stroke-width="2">
        <circle cx="11.588" cy="11.588" r="11.588" stroke="none"/>
        <circle cx="11.588" cy="11.588" r="10.588" fill="none"/>
      </g>
    </g>
  </g>
</svg>
