<svg id="Group_453" data-name="Group 453" xmlns="http://www.w3.org/2000/svg" width="25" height="25" viewBox="0 0 25 25">
  <g id="Rectangle_217" data-name="Rectangle 217" transform="translate(0)" fill="#fff" stroke="#cdd9e3" stroke-width="1">
    <rect width="25" height="25" stroke="none"/>
    <rect x="0.5" y="0.5" width="24" height="24" fill="none"/>
  </g>
  <path id="edit-2" d="M11.421,2.692A1.776,1.776,0,0,1,13.933,5.2L5.454,13.683,2,14.625l.942-3.454Z" transform="translate(4.508 4.36)" fill="none" stroke="#34495e" stroke-linecap="round" stroke-linejoin="round" stroke-width="1"/>
</svg>
