<svg id="Group_454" data-name="Group 454" xmlns="http://www.w3.org/2000/svg" width="25" height="25" viewBox="0 0 25 25">
  <g id="Rectangle_227" data-name="Rectangle 227" transform="translate(0)" fill="#fff" stroke="#cdd9e3" stroke-width="1">
    <rect width="25" height="25" stroke="none"/>
    <rect x="0.5" y="0.5" width="24" height="24" fill="none"/>
  </g>
  <g id="trash-2" transform="translate(6.848 6.22)">
    <path id="Path_293" data-name="Path 293" d="M3,6H14.3" transform="translate(-3 -3.488)" fill="none" stroke="#1c3e60" stroke-linecap="round" stroke-linejoin="round" stroke-width="1"/>
    <path id="Path_294" data-name="Path 294" d="M13.793,4.512V13.3a1.256,1.256,0,0,1-1.256,1.256H6.256A1.256,1.256,0,0,1,5,13.3V4.512m1.884,0V3.256A1.256,1.256,0,0,1,8.14,2h2.512a1.256,1.256,0,0,1,1.256,1.256V4.512" transform="translate(-3.744 -2)" fill="none" stroke="#1c3e60" stroke-linecap="round" stroke-linejoin="round" stroke-width="1"/>
    <line id="Line_64" data-name="Line 64" y2="3.768" transform="translate(4.396 5.652)" fill="none" stroke="#1c3e60" stroke-linecap="round" stroke-linejoin="round" stroke-width="1"/>
    <line id="Line_65" data-name="Line 65" y2="3.768" transform="translate(6.908 5.652)" fill="none" stroke="#1c3e60" stroke-linecap="round" stroke-linejoin="round" stroke-width="1"/>
  </g>
</svg>
