<svg xmlns="http://www.w3.org/2000/svg" xmlns:xlink="http://www.w3.org/1999/xlink" width="58" height="58" viewBox="0 0 58 58">
  <defs>
    <filter id="Rectangle_292" x="0" y="0" width="58" height="58" filterUnits="userSpaceOnUse">
      <feOffset dy="3" input="SourceAlpha"/>
      <feGaussianBlur stdDeviation="3" result="blur"/>
      <feFlood flood-opacity="0.161"/>
      <feComposite operator="in" in2="blur"/>
      <feComposite in="SourceGraphic"/>
    </filter>
  </defs>
  <g id="Group_957" data-name="Group 957" transform="translate(-67 -107)">
    <g transform="matrix(1, 0, 0, 1, 67, 107)" filter="url(#Rectangle_292)">
      <g id="Rectangle_292-2" data-name="Rectangle 292" transform="translate(9 6)" fill="#fff" stroke="#1c3e60" stroke-width="1">
        <rect width="40" height="40" rx="20" stroke="none"/>
        <rect x="0.5" y="0.5" width="39" height="39" rx="19.5" fill="none"/>
      </g>
    </g>
    <path id="chevron-right" d="M15,18,9,12l6-6" transform="translate(84.5 121.5)" fill="none" stroke="#1c3e60" stroke-linecap="round" stroke-linejoin="round" stroke-width="2"/>
  </g>
</svg>
