<svg xmlns="http://www.w3.org/2000/svg" width="23.002" height="33.572" viewBox="0 0 23.002 33.572">
  <g id="iconfinder_medical-healthcare-hospital-33_4082080" transform="translate(-101.2 -29.8)">
    <g id="Group_933" data-name="Group 933" transform="translate(101.2 29.8)">
      <path id="Path_1399" data-name="Path 1399" d="M122.428,85.4h-3.362v2.561a3.2,3.2,0,0,1-3.2,3.2h-6.339a3.2,3.2,0,0,1-3.2-3.2V85.4h-3.362a1.766,1.766,0,0,0-1.767,1.767v25.912a1.766,1.766,0,0,0,1.767,1.767h19.469a1.766,1.766,0,0,0,1.767-1.767V87.167A1.782,1.782,0,0,0,122.428,85.4Zm-1.952,26.966h-1.4v-2.947a.52.52,0,1,0-1.039,0v2.947H104.9V105.3h4.572a.51.51,0,0,0,.438-.245l1.729-2.746v6.858a.517.517,0,0,0,.371.5.554.554,0,0,0,.148.022.51.51,0,0,0,.43-.23l3.184-4.765h4.691v7.675Zm0-8.707H115.5a.528.528,0,0,0-.43.23l-2.39,3.57v-6.947a.517.517,0,0,0-.379-.5.525.525,0,0,0-.586.223l-2.531,4.023H104.9V97.447h15.565v6.213Zm0-8.269H104.9V93.03h15.565v2.36Z" transform="translate(-101.2 -81.273)" fill="#1b3954"/>
      <path id="Path_1400" data-name="Path 1400" d="M328.995,380.48l-.044-.089a.645.645,0,0,0-.067-.082.786.786,0,0,0-.082-.067.554.554,0,0,0-.089-.052.48.48,0,0,0-.1-.03.456.456,0,0,0-.2,0,.479.479,0,0,0-.1.03.553.553,0,0,0-.089.052.357.357,0,0,0-.082.067.786.786,0,0,0-.067.082.251.251,0,0,0-.044.089.48.48,0,0,0-.03.1.49.49,0,0,0-.007.1.551.551,0,0,0,.148.364.79.79,0,0,0,.082.067.251.251,0,0,0,.089.044.479.479,0,0,0,.1.03.732.732,0,0,0,.208,0,.368.368,0,0,0,.1-.03l.089-.044a.652.652,0,0,0,.082-.067.525.525,0,0,0,.156-.364.49.49,0,0,0-.007-.1C329.024,380.547,329.009,380.51,328.995,380.48Z" transform="translate(-311.166 -354.145)" fill="#1b3954"/>
      <g id="Group_932" data-name="Group 932" transform="translate(7.074 0)">
        <path id="Path_1401" data-name="Path 1401" d="M197.747,37.727h6.339a1.242,1.242,0,0,0,1.24-1.24V33.927h-1.96V32.249a2.449,2.449,0,1,0-4.9,0v1.677H196.5v2.561A1.243,1.243,0,0,0,197.747,37.727Z" transform="translate(-196.5 -29.8)" fill="#16ade1"/>
      </g>
    </g>
  </g>
</svg>
