<svg xmlns="http://www.w3.org/2000/svg" width="12.574" height="9.049" viewBox="0 0 12.574 9.049">
  <g id="list_4_" data-name="list (4)" transform="translate(0 0.5)">
    <line id="Line_4" data-name="Line 4" x2="8.72" transform="translate(3.354)" fill="none" stroke="#fcfcfc" stroke-linecap="round" stroke-linejoin="round" stroke-width="1"/>
    <line id="Line_5" data-name="Line 5" x2="8.72" transform="translate(3.354 4.025)" fill="none" stroke="#fcfcfc" stroke-linecap="round" stroke-linejoin="round" stroke-width="1"/>
    <line id="Line_6" data-name="Line 6" x2="8.72" transform="translate(3.354 8.049)" fill="none" stroke="#fcfcfc" stroke-linecap="round" stroke-linejoin="round" stroke-width="1"/>
    <line id="Line_7" data-name="Line 7" stroke-width="1" stroke="#fcfcfc" stroke-linecap="round" stroke-linejoin="round" fill="none"/>
    <line id="Line_8" data-name="Line 8" transform="translate(0 4.025)" fill="none" stroke="#fcfcfc" stroke-linecap="round" stroke-linejoin="round" stroke-width="1"/>
    <line id="Line_9" data-name="Line 9" transform="translate(0 8.049)" fill="none" stroke="#fcfcfc" stroke-linecap="round" stroke-linejoin="round" stroke-width="1"/>
  </g>
</svg>
