<svg id="Youtube" xmlns="http://www.w3.org/2000/svg" width="30.116" height="30.116" viewBox="0 0 30.116 30.116">
  <g id="Youtube-2" data-name="Youtube">
    <path id="back" d="M0,15.058A15.058,15.058,0,1,1,15.058,30.116,15.058,15.058,0,0,1,0,15.058Z" fill="red"/>
    <path id="Fill-1" d="M15.726,1.8A2.039,2.039,0,0,0,14.306.345,46.753,46.753,0,0,0,8.031,0,46.755,46.755,0,0,0,1.756.345,2.039,2.039,0,0,0,.336,1.8,22.028,22.028,0,0,0,0,5.772a22.028,22.028,0,0,0,.336,3.97A2.039,2.039,0,0,0,1.756,11.2a46.768,46.768,0,0,0,6.275.345,46.766,46.766,0,0,0,6.275-.345,2.039,2.039,0,0,0,1.42-1.458,22.022,22.022,0,0,0,.336-3.97,22.022,22.022,0,0,0-.336-3.97" transform="translate(7.027 9.537)" fill="#fff"/>
    <path id="Fill-2" d="M0,5.019V0L4.015,2.51Z" transform="translate(13.552 13.05)" fill="red"/>
  </g>
</svg>
